Sat Feb  9 20:52:14 CET 2019
Preloading tcmalloc_minimal.so
Py:Athena            INFO including file "AthenaCommon/Preparation.py"
Py:Athena            INFO using release [AthenaExternals-22.0.1] [x86_64-centos7-gcc8-opt] [2.0.22/2840e19] -- built on [2019-02-07T2103]
Py:Athena            INFO including file "AthenaCommon/Atlas.UnixStandardJob.py"
Py:Athena            INFO executing ROOT6Setup
Py:Athena            INFO including file "AthenaCommon/Execution.py"
Py:Athena            INFO including file "IOVDbTestAlg/IOVDbTestAlgWriteCool.py"
Py:ConfigurableDb    INFO Read module info for 5454 configurables from 43 genConfDb files
Py:ConfigurableDb    INFO No duplicates have been found: that's good !
EventInfoMgtInit: Got release version  Athena-22.0.1
Py:Athena            INFO including file "AthenaCommon/runbatch.py"
ApplicationMgr       INFO Updating Gaudi::PluginService::SetDebug(level) to level= 'PluginDebugLevel':0
ApplicationMgr       INFO Updating Gaudi::PluginService::SetDebug(level) to level= 'PluginDebugLevel':0
ApplicationMgr    SUCCESS 
====================================================================================================================================
                                                   Welcome to ApplicationMgr (GaudiCoreSvc v30r5)
                                          running on lxplus054.cern.ch on Sat Feb  9 20:52:34 2019
====================================================================================================================================
ApplicationMgr       INFO Successfully loaded modules : AthenaServices
ApplicationMgr       INFO Application Manager Configured successfully
ApplicationMgr                   INFO Updating Gaudi::PluginService::SetDebug(level) to level= 'PluginDebugLevel':0
StatusCodeSvc                    INFO initialize
AthDictLoaderSvc                 INFO in initialize...
AthDictLoaderSvc                 INFO acquired Dso-registry
ClassIDSvc                       INFO  getRegistryEntries: read 3045 CLIDRegistry entries for module ALL
CoreDumpSvc                      INFO install f-a-t-a-l handler... (flag = -1)
CoreDumpSvc                      INFO Handling signals: 11(Segmentation fault) 7(Bus error) 4(Illegal instruction) 8(Floating point exception) 
AthenaEventLoopMgr               INFO Initializing AthenaEventLoopMgr - package version AthenaServices-00-00-00
ClassIDSvc                       INFO  getRegistryEntries: read 770 CLIDRegistry entries for module ALL
xAODMaker::EventInfoCnvAlg       INFO Initializing - Package version: xAODEventInfoCnv-00-00-00
xAODMaker::EventInfoCnvAlg....   INFO Initializing - Package version: xAODEventInfoCnv-00-00-00
PoolSvc                          INFO io_register[PoolSvc](xmlcatalog_file:PoolFileCatalog.xml) [ok]
PoolSvc                          INFO Set connectionsvc retry/timeout/IDLE timeout to  'ConnectionRetrialPeriod':300/ 'ConnectionRetrialTimeOut':3600/ 'ConnectionTimeOut':5 seconds with connection cleanup disabled
PoolSvc                          INFO Frontier compression level set to 5
DBReplicaSvc                     INFO Frontier server at (serverurl=http://atlasfrontier-local.cern.ch:8000/atlr)(serverurl=http://atlasfrontier-ai.cern.ch:8000/atlr)(serverurl=http://lcgft-atlas.gridpp.rl.ac.uk:3128/frontierATLAS)(serverurl=http://ccfrontier.in2p3.fr:23128/ccin2p3-AtlasFrontier)(proxyurl=http://ca-proxy.cern.ch:3128)(proxyurl=http://ca-proxy-meyrin.cern.ch:3128)(proxyurl=http://ca-proxy-wigner.cern.ch:3128)(proxyurl=http://atlasbpfrontier.cern.ch:3127)(proxyurl=http://atlasbpfrontier.fnal.gov:3127) will be considered for COOL data
DBReplicaSvc                     INFO Read replica configuration from /cvmfs/atlas-nightlies.cern.ch/repo/sw/master/2019-02-07T2139/Athena/22.0.1/InstallArea/x86_64-centos7-gcc8-opt/share/dbreplica.config
DBReplicaSvc                     INFO Total of 10 servers found for host lxplus054.cern.ch [ATLF ATLAS_COOLPROD atlas_dd ATLAS_CONFIG INT8R INTR ATONR_COOL ATONR_CONF DEVDB11 ATLF ]
PoolSvc                          INFO Successfully setup replica sorting algorithm
PoolSvc                          INFO Setting up APR FileCatalog and Streams
PoolSvc                          INFO POOL WriteCatalog is xmlcatalog_file:PoolFileCatalog.xml
DbSession                        INFO     Open     DbSession    
Domain[ROOT_All]                 INFO >   Access   DbDomain     READ      [ROOT_All] 
IOVDbSvc                         INFO Opened read transaction for POOL PersistencySvc
IOVDbSvc                         INFO Only 5 POOL conditions files will be open at once
IOVDbFolder                      INFO Read from meta data only for folder /TagInfo
IOVDbSvc                         INFO Initialised with 1 connections and 1 folders
IOVDbSvc                         INFO Service IOVDbSvc initialised successfully
MetaDataSvc                      INFO Initializing MetaDataSvc - package version AthenaServices-00-00-00
AthenaPoolCnvSvc                 INFO Initializing AthenaPoolCnvSvc - package version AthenaPoolCnvSvc-00-00-00
MetaDataSvc                      INFO Found MetaDataTools = PublicToolHandleArray([])
IOVDbSvc                         INFO preLoadAddresses: Removing folder /TagInfo. It should only be in the file meta data and was not found.
xAODMaker::EventInfoCnvAlg....WARNING Beam conditions service not available
xAODMaker::EventInfoCnvAlg....WARNING Will not fill beam spot information into xAOD::EventInfo
xAODMaker::EventInfoCnvAlg....   INFO Luminosity information not available
xAODMaker::EventInfoCnvAlg....   INFO Will take information from the EventInfo object
ClassIDSvc                       INFO  getRegistryEntries: read 1940 CLIDRegistry entries for module ALL
IOVDbTestAlg                    DEBUG Property update for OutputLevel : new value = 2
IOVDbTestAlg                    DEBUG in initialize()
ToolSvc.CondStream2              INFO Initializing ToolSvc.CondStream2 - package version AthenaServices-00-00-00
IOVRegistrationSvc              DEBUG Property update for OutputLevel : new value = 2
IOVRegistrationSvc              DEBUG in initialize()
IOVRegistrationSvc              DEBUG Service base class initialized successfully
IOVRegistrationSvc              DEBUG Found PersistencySvc 
IOVRegistrationSvc              DEBUG Found CLIDSvc 
IOVRegistrationSvc              DEBUG Properties 
IOVRegistrationSvc              DEBUG RecreateFolders  'RecreateFolders':False
IOVRegistrationSvc              DEBUG BeginRun         'BeginRun':0
IOVRegistrationSvc              DEBUG EndRun           'EndRun':2147483647
IOVRegistrationSvc              DEBUG BeginLB       'BeginLB':0
IOVRegistrationSvc              DEBUG EndLB         'EndLB':4294967295
IOVRegistrationSvc              DEBUG IOVDbTag         'IOVDbTag':
IOVRegistrationSvc              DEBUG in queryInterface()
IOVRegistrationSvc              DEBUG matched IIOVRegistrationSvc
IOVDbTestAlg                    DEBUG Found IOVRegistrationSvc 
IOVDbTestAlg                     INFO Tag to be used: COOL-TEST-001
IOVDbTestAlg                    DEBUG input handles: 0
IOVDbTestAlg                    DEBUG output handles: 0
IOVDbTestAlg                    DEBUG Data Deps for IOVDbTestAlg
HistogramPersistencySvc       WARNING Histograms saving not required.
EventSelector                    INFO  Enter McEventSelector Initialization 
AthenaEventLoopMgr               INFO Setup EventSelector service EventSelector
ApplicationMgr                   INFO Application Manager Initialized successfully
ApplicationMgr                   INFO Application Manager Started successfully
EventPersistencySvc              INFO Added successfully Conversion service:McCnvSvc
AthenaEventLoopMgr               INFO   ===>>>  start of run 1    <<<===
EventPersistencySvc              INFO Added successfully Conversion service:TagInfoMgr
AthenaEventLoopMgr               INFO   ===>>>  start processing event #1, run #1 0 events processed so far  <<<===
IOVDbTestAlg                    DEBUG Event (run,ev,lb:time): [1,1,1:0]
IOVDbTestAlg                    DEBUG Event NOT selected for creating conditions objects 
AthenaEventLoopMgr               INFO   ===>>>  done processing event #1, run #1 1 events processed so far  <<<===
AthenaEventLoopMgr               INFO   ===>>>  start processing event #2, run #1 1 events processed so far  <<<===
IOVDbTestAlg                    DEBUG Event (run,ev,lb:time): [1,2,2:5]
IOVDbTestAlg                    DEBUG Event NOT selected for creating conditions objects 
AthenaEventLoopMgr               INFO   ===>>>  done processing event #2, run #1 2 events processed so far  <<<===
AthenaEventLoopMgr               INFO   ===>>>  start processing event #3, run #1 2 events processed so far  <<<===
IOVDbTestAlg                    DEBUG Event (run,ev,lb:time): [1,3,3:10]
IOVDbTestAlg                    DEBUG Event NOT selected for creating conditions objects 
AthenaEventLoopMgr               INFO   ===>>>  done processing event #3, run #1 3 events processed so far  <<<===
AthenaEventLoopMgr               INFO   ===>>>  start processing event #4, run #1 3 events processed so far  <<<===
IOVDbTestAlg                    DEBUG Event (run,ev,lb:time): [1,4,4:15]
IOVDbTestAlg                    DEBUG Event NOT selected for creating conditions objects 
AthenaEventLoopMgr               INFO   ===>>>  done processing event #4, run #1 4 events processed so far  <<<===
AthenaEventLoopMgr               INFO   ===>>>  start processing event #5, run #1 4 events processed so far  <<<===
IOVDbTestAlg                    DEBUG Event (run,ev,lb:time): [1,5,5:20]
IOVDbTestAlg                    DEBUG Event NOT selected for creating conditions objects 
AthenaEventLoopMgr               INFO   ===>>>  done processing event #5, run #1 5 events processed so far  <<<===
AthenaEventLoopMgr               INFO   ===>>>  start of run 2    <<<===
AthenaEventLoopMgr               INFO   ===>>>  start processing event #1, run #2 5 events processed so far  <<<===
IOVDbTestAlg                    DEBUG Event (run,ev,lb:time): [2,1,1:25]
IOVDbTestAlg                    DEBUG Event NOT selected for creating conditions objects 
AthenaEventLoopMgr               INFO   ===>>>  done processing event #1, run #2 6 events processed so far  <<<===
AthenaEventLoopMgr               INFO   ===>>>  start processing event #2, run #2 6 events processed so far  <<<===
IOVDbTestAlg                    DEBUG Event (run,ev,lb:time): [2,2,2:30]
IOVDbTestAlg                    DEBUG Event NOT selected for creating conditions objects 
AthenaEventLoopMgr               INFO   ===>>>  done processing event #2, run #2 7 events processed so far  <<<===
AthenaEventLoopMgr               INFO   ===>>>  start processing event #3, run #2 7 events processed so far  <<<===
IOVDbTestAlg                    DEBUG Event (run,ev,lb:time): [2,3,3:35]
IOVDbTestAlg                    DEBUG Event NOT selected for creating conditions objects 
AthenaEventLoopMgr               INFO   ===>>>  done processing event #3, run #2 8 events processed so far  <<<===
AthenaEventLoopMgr               INFO   ===>>>  start processing event #4, run #2 8 events processed so far  <<<===
IOVDbTestAlg                    DEBUG Event (run,ev,lb:time): [2,4,4:40]
IOVDbTestAlg                    DEBUG Event NOT selected for creating conditions objects 
AthenaEventLoopMgr               INFO   ===>>>  done processing event #4, run #2 9 events processed so far  <<<===
AthenaEventLoopMgr               INFO   ===>>>  start processing event #5, run #2 9 events processed so far  <<<===
IOVDbTestAlg                    DEBUG Event (run,ev,lb:time): [2,5,5:45]
IOVDbTestAlg                    DEBUG Creating condtions objects 
IOVDbTestAlg                     INFO in createCondObjects()
IOVDbTestAlg                    DEBUG Attribute list [xPosition (float) : 0], [id (int) : 7], [name (string) : TestAttrList]
IOVDbTestAlg                    DEBUG ChanNum 16 Attribute list [xPosition (float) : 35], [id (int) : 17], [name (string) : TestAttrList]
IOVDbTestAlg                    DEBUG ChanNum 26 Attribute list [xPosition (float) : 45], [id (int) : 27], [name (string) : TestAttrList]
IOVDbTestAlg                    DEBUG ChanNum 36 Attribute list [xPosition (float) : 55], [id (int) : 37], [name (string) : TestAttrList]
IOVDbTestAlg                     INFO in printCondObjects()
IOVDbTestAlg                     INFO Retrieved IOVDbTestMDTEleMap 
IOVDbTestAlg                     INFO Found mdt element map run 0 event 0 time  45
IOVDbTestAlg                     INFO Retrieved /IOVDbTest/IOVDbTestAMDBCorrection
IOVDbTestAlg                     INFO Found amdb correction trans 1 2 3 rot 4 5 6
IOVDbTestAlg                    DEBUG Retrieved IOVDbTestAttrList
IOVDbTestAlg                    DEBUG Attribute list {xPosition (float) : 0,id (int) : 7,name (string) : TestAttrList}
IOVDbTestAlg                    DEBUG Retrieved IOVDbTestAttrListColl
IOVDbTestAlg                    DEBUG ChanNum 16 Attribute list [xPosition (float) : 35], [id (int) : 17], [name (string) : TestAttrList]
IOVDbTestAlg                    DEBUG No range found 
IOVDbTestAlg                    DEBUG ChanNum 26 Attribute list [xPosition (float) : 45], [id (int) : 27], [name (string) : TestAttrList]
IOVDbTestAlg                    DEBUG No range found 
IOVDbTestAlg                    DEBUG ChanNum 36 Attribute list [xPosition (float) : 55], [id (int) : 37], [name (string) : TestAttrList]
IOVDbTestAlg                    DEBUG No range found 
DetectorStore                 WARNING retrieve(const): No valid proxy for object /Simulation/Parameters  of type AthenaAttributeList(CLID 40774348)
IOVDbTestAlg                  WARNING Could not retrieve Simulation parameters
DetectorStore                 WARNING retrieve(const): No valid proxy for object /Digitization/Parameters  of type AthenaAttributeList(CLID 40774348)
IOVDbTestAlg                  WARNING Could not retrieve Digitization parameters
IOVDbTestAlg                     INFO Retrieved IOVDbTestMDTEleMapColl 
IOVDbTestAlg                     INFO Found mdt element map run 0 event 0 time  45 channel 1
IOVDbTestAlg                     INFO Found mdt element map run 0 event 0 time  55 channel 4
IOVDbTestAlg                     INFO Found mdt element map run 0 event 0 time  65 channel 7
IOVDbTestAlg                     INFO Found mdt element map run 0 event 0 time  75 channel 10
IOVDbTestAlg                     INFO Found mdt element map run 0 event 0 time  85 channel 13
IOVDbTestAlg                     INFO Found mdt element map run 0 event 0 time  95 channel 16
IOVDbTestAlg                     INFO Found mdt element map run 0 event 0 time  105 channel 19
IOVDbTestAlg                     INFO Found mdt element map run 0 event 0 time  115 channel 22
IOVDbTestAlg                     INFO Found mdt element map run 0 event 0 time  125 channel 25
IOVDbTestAlg                     INFO Found mdt element map run 0 event 0 time  135 channel 28
AthenaEventLoopMgr               INFO   ===>>>  done processing event #5, run #2 10 events processed so far  <<<===
AthenaEventLoopMgr               INFO   ===>>>  start of run 3    <<<===
AthenaEventLoopMgr               INFO   ===>>>  start processing event #1, run #3 10 events processed so far  <<<===
IOVDbTestAlg                    DEBUG Event (run,ev,lb:time): [3,1,1:50]
IOVDbTestAlg                    DEBUG Event NOT selected for creating conditions objects 
AthenaEventLoopMgr               INFO   ===>>>  done processing event #1, run #3 11 events processed so far  <<<===
AthenaEventLoopMgr               INFO   ===>>>  start processing event #2, run #3 11 events processed so far  <<<===
IOVDbTestAlg                    DEBUG Event (run,ev,lb:time): [3,2,2:55]
IOVDbTestAlg                    DEBUG Event NOT selected for creating conditions objects 
AthenaEventLoopMgr               INFO   ===>>>  done processing event #2, run #3 12 events processed so far  <<<===
AthenaEventLoopMgr               INFO   ===>>>  start processing event #3, run #3 12 events processed so far  <<<===
IOVDbTestAlg                    DEBUG Event (run,ev,lb:time): [3,3,3:60]
IOVDbTestAlg                    DEBUG Event NOT selected for creating conditions objects 
AthenaEventLoopMgr               INFO   ===>>>  done processing event #3, run #3 13 events processed so far  <<<===
AthenaEventLoopMgr               INFO   ===>>>  start processing event #4, run #3 13 events processed so far  <<<===
IOVDbTestAlg                    DEBUG Event (run,ev,lb:time): [3,4,4:65]
IOVDbTestAlg                    DEBUG Event NOT selected for creating conditions objects 
AthenaEventLoopMgr               INFO   ===>>>  done processing event #4, run #3 14 events processed so far  <<<===
AthenaEventLoopMgr               INFO   ===>>>  start processing event #5, run #3 14 events processed so far  <<<===
IOVDbTestAlg                    DEBUG Event (run,ev,lb:time): [3,5,5:70]
IOVDbTestAlg                    DEBUG Event NOT selected for creating conditions objects 
AthenaEventLoopMgr               INFO   ===>>>  done processing event #5, run #3 15 events processed so far  <<<===
AthenaEventLoopMgr               INFO   ===>>>  start of run 4    <<<===
AthenaEventLoopMgr               INFO   ===>>>  start processing event #1, run #4 15 events processed so far  <<<===
IOVDbTestAlg                    DEBUG Event (run,ev,lb:time): [4,1,1:75]
IOVDbTestAlg                    DEBUG Event NOT selected for creating conditions objects 
AthenaEventLoopMgr               INFO   ===>>>  done processing event #1, run #4 16 events processed so far  <<<===
AthenaEventLoopMgr               INFO   ===>>>  start processing event #2, run #4 16 events processed so far  <<<===
IOVDbTestAlg                    DEBUG Event (run,ev,lb:time): [4,2,2:80]
IOVDbTestAlg                    DEBUG Event NOT selected for creating conditions objects 
AthenaEventLoopMgr               INFO   ===>>>  done processing event #2, run #4 17 events processed so far  <<<===
AthenaEventLoopMgr               INFO   ===>>>  start processing event #3, run #4 17 events processed so far  <<<===
IOVDbTestAlg                    DEBUG Event (run,ev,lb:time): [4,3,3:85]
IOVDbTestAlg                    DEBUG Event NOT selected for creating conditions objects 
AthenaEventLoopMgr               INFO   ===>>>  done processing event #3, run #4 18 events processed so far  <<<===
AthenaEventLoopMgr               INFO   ===>>>  start processing event #4, run #4 18 events processed so far  <<<===
IOVDbTestAlg                    DEBUG Event (run,ev,lb:time): [4,4,4:90]
IOVDbTestAlg                    DEBUG Event NOT selected for creating conditions objects 
AthenaEventLoopMgr               INFO   ===>>>  done processing event #4, run #4 19 events processed so far  <<<===
AthenaEventLoopMgr               INFO   ===>>>  start processing event #5, run #4 19 events processed so far  <<<===
IOVDbTestAlg                    DEBUG Event (run,ev,lb:time): [4,5,5:95]
IOVDbTestAlg                    DEBUG Event NOT selected for creating conditions objects 
AthenaEventLoopMgr               INFO   ===>>>  done processing event #5, run #4 20 events processed so far  <<<===
AthenaEventLoopMgr               INFO   ===>>>  start of run 5    <<<===
AthenaEventLoopMgr               INFO   ===>>>  start processing event #1, run #5 20 events processed so far  <<<===
IOVDbTestAlg                    DEBUG Event (run,ev,lb:time): [5,1,1:100]
IOVDbTestAlg                    DEBUG Event NOT selected for creating conditions objects 
AthenaEventLoopMgr               INFO   ===>>>  done processing event #1, run #5 21 events processed so far  <<<===
AthenaEventLoopMgr               INFO   ===>>>  start processing event #2, run #5 21 events processed so far  <<<===
IOVDbTestAlg                    DEBUG Event (run,ev,lb:time): [5,2,2:105]
IOVDbTestAlg                    DEBUG Event NOT selected for creating conditions objects 
AthenaEventLoopMgr               INFO   ===>>>  done processing event #2, run #5 22 events processed so far  <<<===
AthenaEventLoopMgr               INFO   ===>>>  start processing event #3, run #5 22 events processed so far  <<<===
IOVDbTestAlg                    DEBUG Event (run,ev,lb:time): [5,3,3:110]
IOVDbTestAlg                    DEBUG Event NOT selected for creating conditions objects 
AthenaEventLoopMgr               INFO   ===>>>  done processing event #3, run #5 23 events processed so far  <<<===
AthenaEventLoopMgr               INFO   ===>>>  start processing event #4, run #5 23 events processed so far  <<<===
IOVDbTestAlg                    DEBUG Event (run,ev,lb:time): [5,4,4:115]
IOVDbTestAlg                    DEBUG Event NOT selected for creating conditions objects 
AthenaEventLoopMgr               INFO   ===>>>  done processing event #4, run #5 24 events processed so far  <<<===
AthenaEventLoopMgr               INFO   ===>>>  start processing event #5, run #5 24 events processed so far  <<<===
IOVDbTestAlg                    DEBUG Event (run,ev,lb:time): [5,5,5:120]
IOVDbTestAlg                    DEBUG Event NOT selected for creating conditions objects 
AthenaEventLoopMgr               INFO   ===>>>  done processing event #5, run #5 25 events processed so far  <<<===
Domain[ROOT_All]                 INFO >   Deaccess DbDomain     READ      [ROOT_All] 
ApplicationMgr                   INFO Application Manager Stopped successfully
IncidentProcAlg1                 INFO Finalize
IOVDbTestAlg                     INFO in finalize()
IOVDbTestAlg                    DEBUG Stream out objects directly 
IOVDbTestAlg                    DEBUG entering streamOutCondObjects 
DbSession                        INFO     Open     DbSession    
Domain[ROOT_All]                 INFO >   Access   DbDomain     UPDATE    [ROOT_All] 
Domain[ROOT_All]                 INFO ->  Access   DbDatabase   CREATE    [ROOT_All] A300FBEC-B338-7547-8B03-B1E50FABF18C
Domain[ROOT_All]                 INFO                           SimplePoolFile.root
RootDatabase.open                INFO SimplePoolFile.root File version:61404
IOVDbTestAlg                    DEBUG Stream out for pairs:
IOVDbTestAlg                    DEBUG IOVDbTestMDTEleMap  
IOVDbTestAlg                    DEBUG IOVDbTestAmdbCorrection  
IOVDbTestAlg                    DEBUG IOVDbTestMDTEleMapColl  
ClassIDSvc                       INFO  getRegistryEntries: read 545 CLIDRegistry entries for module ALL
StorageSvc                       INFO Building shape according to reflection information using shape ID for:
StorageSvc                       INFO IOVDbTestMDTEleMap [DBDD3779-7E80-463C-9E29-5AAA08432783]
StorageSvc                       INFO Building shape according to reflection information using shape ID for:
StorageSvc                       INFO CondMultChanCollImpl [1F1A18E0-CAFF-4AE4-84CC-2DC822C42AAA]
StorageSvc                       INFO Building shape according to reflection information using shape ID for:
StorageSvc                       INFO IOVDbTestAmdbCorrection [C3B137B3-F09E-4B75-B14C-AAA2B64408BB]
StorageSvc                       INFO Building shape according to reflection information using shape ID for:
StorageSvc                       INFO DataHeaderForm_p5 [3397D8A3-BBE6-463C-9F8E-4B3DFD8831FE]
StorageSvc                       INFO Building shape according to reflection information using shape ID for:
StorageSvc                       INFO DataHeader_p5 [D82968A1-CF91-4320-B2DD-E0F739CBC7E6]
IOVDbTestAlg                    DEBUG Streamed out OK 
IOVDbTestAlg                    DEBUG entering registerCondObject 
IOVRegistrationSvc              DEBUG  in registerIOV() typename: IOVDbTestMDTEleMap - tag: MDTEleMap_COOL-TEST-001 key: *empty* 
IOVRegistrationSvc              DEBUG  - begin time: [0,0] - end time: [2147483647,4294967295]
IOVRegistrationSvc              DEBUG  in registerIOVCOOL()
ClassIDSvc                       INFO  getRegistryEntries: read 35 CLIDRegistry entries for module ALL
EventPersistencySvc              INFO Added successfully Conversion service:AthenaPoolCnvSvc
IOVRegistrationSvc              DEBUG String address = "<address_header service_type="256" clid="130789821" /> [DB=A300FBEC-B338-7547-8B03-B1E50FABF18C][CNT=CollectionTree(IOVDbTestMDTEleMap//IOVDbTest/IOVDbTestMDTEleMap)][CLID=DBDD3779-7E80-463C-9E29-5AAA08432783][TECH=00000202][OID=0000000000000005-0000000000000000]"
IOVRegistrationSvc              DEBUG Storing ref: 1 Storing AttrListCollection: 0
IOVRegistrationSvc              DEBUG Using folder name /IOVDbTest/IOVDbTestMDTEleMap
IOVDbSvc                         INFO Opening COOL connection for sqlite://;schema=mytest.db;dbname=TESTCOOL
IOVDbSvc                         INFO *** COOL  exception caught: The database does not exist
IOVDbSvc                         INFO Create a new conditions database: sqlite://;schema=mytest.db;dbname=TESTCOOL
IOVRegistrationSvc              DEBUG Identified prod/writer 00
IOVRegistrationSvc              DEBUG Set attr list coll ptr 0
IOVRegistrationSvc              DEBUG COOL Folder /IOVDbTest/IOVDbTestMDTEleMap does not exist - must create it
IOVRegistrationSvc              DEBUG split address: <address_header service_type="256" clid="130789821" /> [DB=A300FBEC-B338-7547-8B03-B1E50FABF18C][CNT=CollectionTree(IOVDbTestMDTEleMap//IOVDbTest/IOVDbTestMDTEleMap)][CLID=DBDD3779-7E80-463C-9E29-5AAA08432783][TECH=00000202][OID=0000000000000005-0000000000000000]
IOVRegistrationSvc              DEBUG   hdr:  <address_header service_type="256" clid="130789821" />
IOVRegistrationSvc              DEBUG   data: [DB=A300FBEC-B338-7547-8B03-B1E50FABF18C][CNT=CollectionTree(IOVDbTestMDTEleMap//IOVDbTest/IOVDbTestMDTEleMap)][CLID=DBDD3779-7E80-463C-9E29-5AAA08432783][TECH=00000202][OID=0000000000000005-0000000000000000]
IOVRegistrationSvc              DEBUG  create folder /IOVDbTest/IOVDbTestMDTEleMap with description <timeStamp>run-lumi</timeStamp><addrHeader><address_header service_type="256" clid="130789821" /></addrHeader><typeName>IOVDbTestMDTEleMap</typeName>
IOVRegistrationSvc              DEBUG Set attr list coll ptr 0
IOVRegistrationSvc              DEBUG Creation of CondDBFolder /IOVDbTest/IOVDbTestMDTEleMap done
IOVRegistrationSvc              DEBUG  Start/stop time [0,0] [2147483647,4294967295] 
IOVRegistrationSvc              DEBUG Object stored with user tag MDTEleMap_COOL-TEST-001
IOVRegistrationSvc              DEBUG  --> Stored Object( [0,0], [2147483647,4294967295], MDTEleMap_COOL-TEST-001 )
IOVRegistrationSvc              DEBUG  -->   address: [DB=A300FBEC-B338-7547-8B03-B1E50FABF18C][CNT=CollectionTree(IOVDbTestMDTEleMap//IOVDbTest/IOVDbTestMDTEleMap)][CLID=DBDD3779-7E80-463C-9E29-5AAA08432783][TECH=00000202][OID=0000000000000005-0000000000000000]
IOVRegistrationSvc              DEBUG  storeData OK 
IOVDbTestAlg                    DEBUG registered IOVDbTestMDTEleMap with tag MDTEleMap_COOL-TEST-001
IOVRegistrationSvc              DEBUG  in registerIOV() typename: IOVDbTestAmdbCorrection - tag: AmdbCorrection_COOL-TEST-001 key: *empty* 
IOVRegistrationSvc              DEBUG  - begin time: [0] - end time: [9223372036854775807]
IOVRegistrationSvc              DEBUG  in registerIOVCOOL()
IOVRegistrationSvc              DEBUG String address = "<address_header service_type="256" clid="132798543" /> [DB=A300FBEC-B338-7547-8B03-B1E50FABF18C][CNT=CollectionTree(IOVDbTestAmdbCorrection//IOVDbTest/IOVDbTestAMDBCorrection)][CLID=C3B137B3-F09E-4B75-B14C-AAA2B64408BB][TECH=00000202][OID=0000000000000006-0000000000000000]"
IOVRegistrationSvc              DEBUG Storing ref: 1 Storing AttrListCollection: 0
IOVRegistrationSvc              DEBUG Using folder name /IOVDbTest/IOVDbTestAMDBCorrection
IOVRegistrationSvc              DEBUG Identified prod/writer 00
IOVRegistrationSvc              DEBUG Set attr list coll ptr 0
IOVRegistrationSvc              DEBUG COOL Folder /IOVDbTest/IOVDbTestAMDBCorrection does not exist - must create it
IOVRegistrationSvc              DEBUG split address: <address_header service_type="256" clid="132798543" /> [DB=A300FBEC-B338-7547-8B03-B1E50FABF18C][CNT=CollectionTree(IOVDbTestAmdbCorrection//IOVDbTest/IOVDbTestAMDBCorrection)][CLID=C3B137B3-F09E-4B75-B14C-AAA2B64408BB][TECH=00000202][OID=0000000000000006-0000000000000000]
IOVRegistrationSvc              DEBUG   hdr:  <address_header service_type="256" clid="132798543" />
IOVRegistrationSvc              DEBUG   data: [DB=A300FBEC-B338-7547-8B03-B1E50FABF18C][CNT=CollectionTree(IOVDbTestAmdbCorrection//IOVDbTest/IOVDbTestAMDBCorrection)][CLID=C3B137B3-F09E-4B75-B14C-AAA2B64408BB][TECH=00000202][OID=0000000000000006-0000000000000000]
IOVRegistrationSvc              DEBUG  create folder /IOVDbTest/IOVDbTestAMDBCorrection with description <timeStamp>time</timeStamp><addrHeader><address_header service_type="256" clid="132798543" /></addrHeader><typeName>IOVDbTestAmdbCorrection</typeName>
IOVRegistrationSvc              DEBUG Set attr list coll ptr 0
IOVRegistrationSvc              DEBUG Creation of CondDBFolder /IOVDbTest/IOVDbTestAMDBCorrection done
IOVRegistrationSvc              DEBUG  Start/stop time [0] [9223372036854775807] 
IOVRegistrationSvc              DEBUG Object stored with user tag AmdbCorrection_COOL-TEST-001
IOVRegistrationSvc              DEBUG  --> Stored Object( [0], [9223372036854775807], AmdbCorrection_COOL-TEST-001 )
IOVRegistrationSvc              DEBUG  -->   address: [DB=A300FBEC-B338-7547-8B03-B1E50FABF18C][CNT=CollectionTree(IOVDbTestAmdbCorrection//IOVDbTest/IOVDbTestAMDBCorrection)][CLID=C3B137B3-F09E-4B75-B14C-AAA2B64408BB][TECH=00000202][OID=0000000000000006-0000000000000000]
IOVRegistrationSvc              DEBUG  storeData OK 
IOVDbTestAlg                    DEBUG registered IOVDbTestAmdbCorrection with tag AmdbCorrection_COOL-TEST-001
IOVRegistrationSvc              DEBUG  in registerIOV() typename: AthenaAttributeList - tag: AttrList_COOL-TEST-001 spec_key /IOVDbTest/IOVDbTestAttrList
IOVRegistrationSvc              DEBUG  - begin time: [0,0] - end time: [2147483647,4294967295]
IOVRegistrationSvc              DEBUG  in registerIOVCOOL()
IOVRegistrationSvc              DEBUG Faking address for AthenaAttributeList
IOVRegistrationSvc              DEBUG Storing ref: 0 Storing AttrListCollection: 0
IOVRegistrationSvc              DEBUG Using folder name /IOVDbTest/IOVDbTestAttrList
IOVRegistrationSvc              DEBUG Identified prod/writer 00
IOVRegistrationSvc              DEBUG Set attr list coll ptr 0
IOVRegistrationSvc              DEBUG COOL Folder /IOVDbTest/IOVDbTestAttrList does not exist - must create it
IOVRegistrationSvc              DEBUG split address: <address_header service_type="256" clid="40774348" /> POOLContainer_AthenaAttributeList][CLID=x
IOVRegistrationSvc              DEBUG   hdr:  <address_header service_type="256" clid="40774348" />
IOVRegistrationSvc              DEBUG   data: POOLContainer_AthenaAttributeList][CLID=x
IOVRegistrationSvc              DEBUG  create folder /IOVDbTest/IOVDbTestAttrList with description <timeStamp>run-lumi</timeStamp><addrHeader><address_header service_type="256" clid="40774348" /></addrHeader><typeName>AthenaAttributeList</typeName>
IOVRegistrationSvc              DEBUG Set attr list coll ptr 0
IOVRegistrationSvc              DEBUG In simple atrlist branch
IOVRegistrationSvc              DEBUG Pointer to atrList is 0x31c17a98
IOVRegistrationSvc              DEBUG Creation of CondDBFolder /IOVDbTest/IOVDbTestAttrList done
IOVRegistrationSvc              DEBUG  Start/stop time [0,0] [2147483647,4294967295] 
IOVRegistrationSvc              DEBUG Object stored with user tag AttrList_COOL-TEST-001
IOVRegistrationSvc              DEBUG  --> Stored Object( [0,0], [2147483647,4294967295], AttrList_COOL-TEST-001 )
IOVRegistrationSvc              DEBUG  -->   address: POOLContainer_AthenaAttributeList][CLID=x
IOVRegistrationSvc              DEBUG  storeData OK 
IOVDbTestAlg                    DEBUG registered AthenaAttributeList with tag AttrList_COOL-TEST-001
IOVRegistrationSvc              DEBUG  in registerIOV() typename: CondAttrListCollection - tag: AttrListColl_COOL-TEST-001 key: *empty* 
IOVRegistrationSvc              DEBUG  - begin time: [0,0] - end time: [2147483647,4294967295]
IOVRegistrationSvc              DEBUG  in registerIOVCOOL()
IOVRegistrationSvc              DEBUG Faking address for CondAttrListCollection
IOVRegistrationSvc              DEBUG Storing ref: 0 Storing AttrListCollection: 1
IOVRegistrationSvc              DEBUG Using folder name /IOVDbTest/IOVDbTestAttrListColl
IOVRegistrationSvc              DEBUG Identified prod/writer 00
IOVRegistrationSvc              DEBUG Set attr list coll ptr 0x31b43d00
IOVRegistrationSvc              DEBUG COOL Folder /IOVDbTest/IOVDbTestAttrListColl does not exist - must create it
IOVRegistrationSvc              DEBUG split address: <address_header service_type="256" clid="1238547719" /> POOLContainer_CondAttrListCollection][CLID=x
IOVRegistrationSvc              DEBUG   hdr:  <address_header service_type="256" clid="1238547719" />
IOVRegistrationSvc              DEBUG   data: POOLContainer_CondAttrListCollection][CLID=x
IOVRegistrationSvc              DEBUG  create folder /IOVDbTest/IOVDbTestAttrListColl with description <timeStamp>run-lumi</timeStamp><addrHeader><address_header service_type="256" clid="1238547719" /></addrHeader><typeName>CondAttrListCollection</typeName>
IOVRegistrationSvc              DEBUG Set attr list coll ptr 0x31b43d00
IOVRegistrationSvc              DEBUG Size of AttrList collection3
IOVRegistrationSvc              DEBUG Pointer to atrList is 0x31d2a4d8
IOVRegistrationSvc              DEBUG Creation of CondDBFolder /IOVDbTest/IOVDbTestAttrListColl done
IOVRegistrationSvc              DEBUG  Global Start/stop time: [0,0] [2147483647,4294967295] Note: will be ignored for channels with differnt IOVs 
IOVRegistrationSvc              DEBUG  --> Storing Object( [0,0], [2147483647,4294967295], AttrListColl_COOL-TEST-001 )
IOVRegistrationSvc              DEBUG  -->   address: POOLContainer_CondAttrListCollection][CLID=x
IOVRegistrationSvc              DEBUG  --> ChanNum: 16 Payload: [xPosition (float) : 35], [id (int) : 17], [name (string) : TestAttrList]
IOVRegistrationSvc              DEBUG  --> Start/stop time [0,0] [2147483647,4294967295] 
IOVRegistrationSvc              DEBUG Object stored with user tag AttrListColl_COOL-TEST-001
IOVRegistrationSvc              DEBUG  --> ChanNum: 26 Payload: [xPosition (float) : 45], [id (int) : 27], [name (string) : TestAttrList]
IOVRegistrationSvc              DEBUG  --> Start/stop time [0,0] [2147483647,4294967295] 
IOVRegistrationSvc              DEBUG Object stored with user tag AttrListColl_COOL-TEST-001
IOVRegistrationSvc              DEBUG  --> ChanNum: 36 Payload: [xPosition (float) : 55], [id (int) : 37], [name (string) : TestAttrList]
IOVRegistrationSvc              DEBUG  --> Start/stop time [0,0] [2147483647,4294967295] 
IOVRegistrationSvc              DEBUG Object stored with user tag AttrListColl_COOL-TEST-001
IOVRegistrationSvc              DEBUG  storeData OK 
IOVDbTestAlg                    DEBUG registered CondAttrListCollection with tag AttrListColl_COOL-TEST-001
IOVRegistrationSvc              DEBUG  in registerIOV() typename: IOVDbTestMDTEleMapColl - tag: MDTEleMapColl_COOL-TEST-001 key: *empty* 
IOVRegistrationSvc              DEBUG  - begin time: [0,0] - end time: [2147483647,4294967295]
IOVRegistrationSvc              DEBUG  in registerIOVCOOL()
IOVRegistrationSvc              DEBUG String address = "<address_header service_type="256" clid="155887251" /> [DB=A300FBEC-B338-7547-8B03-B1E50FABF18C][CNT=CollectionTreeCondMultChanCollImpl][CLID=1F1A18E0-CAFF-4AE4-84CC-2DC822C42AAA][TECH=00000202][OID=0000000000000004-0000000000000000]"
IOVRegistrationSvc              DEBUG Storing ref: 0 Storing AttrListCollection: 1
IOVRegistrationSvc              DEBUG Using folder name /IOVDbTest/IOVDbTestMDTEleMapColl
IOVRegistrationSvc              DEBUG Identified prod/writer 00
IOVRegistrationSvc              DEBUG Set attr list coll ptr 
IOVRegistrationSvc              DEBUG addr, attrAddr, coll 0x31e681e0 0x31e681e0 0x31b43500
IOVRegistrationSvc              DEBUG Set attr list coll ptr 0x31b43500
IOVRegistrationSvc              DEBUG COOL Folder /IOVDbTest/IOVDbTestMDTEleMapColl does not exist - must create it
IOVRegistrationSvc              DEBUG split address: <address_header service_type="256" clid="155887251" /> [DB=A300FBEC-B338-7547-8B03-B1E50FABF18C][CNT=CollectionTreeCondMultChanCollImpl][CLID=1F1A18E0-CAFF-4AE4-84CC-2DC822C42AAA][TECH=00000202][OID=0000000000000004-0000000000000000]
IOVRegistrationSvc              DEBUG   hdr:  <address_header service_type="256" clid="155887251" />
IOVRegistrationSvc              DEBUG   data: [DB=A300FBEC-B338-7547-8B03-B1E50FABF18C][CNT=CollectionTreeCondMultChanCollImpl][CLID=1F1A18E0-CAFF-4AE4-84CC-2DC822C42AAA][TECH=00000202][OID=0000000000000004-0000000000000000]
IOVRegistrationSvc              DEBUG  create folder /IOVDbTest/IOVDbTestMDTEleMapColl with description <timeStamp>run-lumi</timeStamp><addrHeader><address_header service_type="256" clid="155887251" /></addrHeader><typeName>IOVDbTestMDTEleMapColl</typeName>
IOVRegistrationSvc              DEBUG Set attr list coll ptr 0x31b43500
IOVRegistrationSvc              DEBUG Size of AttrList collection10
IOVRegistrationSvc              DEBUG Pointer to atrList is 0x31de9a48
IOVRegistrationSvc              DEBUG Creation of CondDBFolder /IOVDbTest/IOVDbTestMDTEleMapColl done
IOVRegistrationSvc              DEBUG  Global Start/stop time: [0,0] [2147483647,4294967295] Note: will be ignored for channels with differnt IOVs 
IOVRegistrationSvc              DEBUG  --> Storing Object( [0,0], [2147483647,4294967295], MDTEleMapColl_COOL-TEST-001 )
IOVRegistrationSvc              DEBUG  -->   address: [DB=A300FBEC-B338-7547-8B03-B1E50FABF18C][CNT=CollectionTreeCondMultChanCollImpl][CLID=1F1A18E0-CAFF-4AE4-84CC-2DC822C42AAA][TECH=00000202][OID=0000000000000004-0000000000000000]
IOVRegistrationSvc              DEBUG  --> ChanNum: 1 Payload: [PoolRef (string) : [DB=A300FBEC-B338-7547-8B03-B1E50FABF18C][CNT=CollectionTreeIOVDbTestMDTEleMap][CLID=DBDD3779-7E80-463C-9E29-5AAA08432783][TECH=00000202][OID=0000000000000003-0000000000000000]]
IOVRegistrationSvc              DEBUG  --> Start/stop time [0,0] [2147483647,4294967295] 
IOVRegistrationSvc              DEBUG Object stored with user tag MDTEleMapColl_COOL-TEST-001
IOVRegistrationSvc              DEBUG  --> ChanNum: 4 Payload: [PoolRef (string) : [DB=A300FBEC-B338-7547-8B03-B1E50FABF18C][CNT=CollectionTreeIOVDbTestMDTEleMap][CLID=DBDD3779-7E80-463C-9E29-5AAA08432783][TECH=00000202][OID=0000000000000003-0000000000000001]]
IOVRegistrationSvc              DEBUG  --> Start/stop time [0,0] [2147483647,4294967295] 
IOVRegistrationSvc              DEBUG Object stored with user tag MDTEleMapColl_COOL-TEST-001
IOVRegistrationSvc              DEBUG  --> ChanNum: 7 Payload: [PoolRef (string) : [DB=A300FBEC-B338-7547-8B03-B1E50FABF18C][CNT=CollectionTreeIOVDbTestMDTEleMap][CLID=DBDD3779-7E80-463C-9E29-5AAA08432783][TECH=00000202][OID=0000000000000003-0000000000000002]]
IOVRegistrationSvc              DEBUG  --> Start/stop time [0,0] [2147483647,4294967295] 
IOVRegistrationSvc              DEBUG Object stored with user tag MDTEleMapColl_COOL-TEST-001
IOVRegistrationSvc              DEBUG  --> ChanNum: 10 Payload: [PoolRef (string) : [DB=A300FBEC-B338-7547-8B03-B1E50FABF18C][CNT=CollectionTreeIOVDbTestMDTEleMap][CLID=DBDD3779-7E80-463C-9E29-5AAA08432783][TECH=00000202][OID=0000000000000003-0000000000000003]]
IOVRegistrationSvc              DEBUG  --> Start/stop time [0,0] [2147483647,4294967295] 
IOVRegistrationSvc              DEBUG Object stored with user tag MDTEleMapColl_COOL-TEST-001
IOVRegistrationSvc              DEBUG  --> ChanNum: 13 Payload: [PoolRef (string) : [DB=A300FBEC-B338-7547-8B03-B1E50FABF18C][CNT=CollectionTreeIOVDbTestMDTEleMap][CLID=DBDD3779-7E80-463C-9E29-5AAA08432783][TECH=00000202][OID=0000000000000003-0000000000000004]]
IOVRegistrationSvc              DEBUG  --> Start/stop time [0,0] [2147483647,4294967295] 
IOVRegistrationSvc              DEBUG Object stored with user tag MDTEleMapColl_COOL-TEST-001
IOVRegistrationSvc              DEBUG  --> ChanNum: 16 Payload: [PoolRef (string) : [DB=A300FBEC-B338-7547-8B03-B1E50FABF18C][CNT=CollectionTreeIOVDbTestMDTEleMap][CLID=DBDD3779-7E80-463C-9E29-5AAA08432783][TECH=00000202][OID=0000000000000003-0000000000000005]]
IOVRegistrationSvc              DEBUG  --> Start/stop time [0,0] [2147483647,4294967295] 
IOVRegistrationSvc              DEBUG Object stored with user tag MDTEleMapColl_COOL-TEST-001
IOVRegistrationSvc              DEBUG  --> ChanNum: 19 Payload: [PoolRef (string) : [DB=A300FBEC-B338-7547-8B03-B1E50FABF18C][CNT=CollectionTreeIOVDbTestMDTEleMap][CLID=DBDD3779-7E80-463C-9E29-5AAA08432783][TECH=00000202][OID=0000000000000003-0000000000000006]]
IOVRegistrationSvc              DEBUG  --> Start/stop time [0,0] [2147483647,4294967295] 
IOVRegistrationSvc              DEBUG Object stored with user tag MDTEleMapColl_COOL-TEST-001
IOVRegistrationSvc              DEBUG  --> ChanNum: 22 Payload: [PoolRef (string) : [DB=A300FBEC-B338-7547-8B03-B1E50FABF18C][CNT=CollectionTreeIOVDbTestMDTEleMap][CLID=DBDD3779-7E80-463C-9E29-5AAA08432783][TECH=00000202][OID=0000000000000003-0000000000000007]]
IOVRegistrationSvc              DEBUG  --> Start/stop time [0,0] [2147483647,4294967295] 
IOVRegistrationSvc              DEBUG Object stored with user tag MDTEleMapColl_COOL-TEST-001
IOVRegistrationSvc              DEBUG  --> ChanNum: 25 Payload: [PoolRef (string) : [DB=A300FBEC-B338-7547-8B03-B1E50FABF18C][CNT=CollectionTreeIOVDbTestMDTEleMap][CLID=DBDD3779-7E80-463C-9E29-5AAA08432783][TECH=00000202][OID=0000000000000003-0000000000000008]]
IOVRegistrationSvc              DEBUG  --> Start/stop time [0,0] [2147483647,4294967295] 
IOVRegistrationSvc              DEBUG Object stored with user tag MDTEleMapColl_COOL-TEST-001
IOVRegistrationSvc              DEBUG  --> ChanNum: 28 Payload: [PoolRef (string) : [DB=A300FBEC-B338-7547-8B03-B1E50FABF18C][CNT=CollectionTreeIOVDbTestMDTEleMap][CLID=DBDD3779-7E80-463C-9E29-5AAA08432783][TECH=00000202][OID=0000000000000003-0000000000000009]]
IOVRegistrationSvc              DEBUG  --> Start/stop time [0,0] [2147483647,4294967295] 
IOVRegistrationSvc              DEBUG Object stored with user tag MDTEleMapColl_COOL-TEST-001
IOVRegistrationSvc              DEBUG  storeData OK 
IOVDbTestAlg                    DEBUG registered IOVDbTestMDTEleMapColl with tag MDTEleMapColl_COOL-TEST-001
IOVDbTestAlg                    DEBUG Register OK 
IOVDbTestAlg                    DEBUG Calling destructor
IncidentProcAlg2                 INFO Finalize
EventSelector                    INFO finalize
IOVDbSvc                         INFO  bytes in ((      0.00 ))s
IOVDbSvc                         INFO Disconnecting from sqlite://;schema=mytest.db;dbname=TESTCOOL
IOVDbSvc                         INFO Connection sqlite://;schema=mytest.db;dbname=TESTCOOL : nConnect: 1 nFolders: 0 ReadTime: ((     0.00 ))s
SimplePoolFile.root              INFO Database being retired...
RootDatabase.close              ERROR Failed to modify file: SimplePoolFile.root Errno=2 No such file or directory
Domain[ROOT_All]                 INFO ->  Deaccess DbDatabase   CREATE    [ROOT_All] A300FBEC-B338-7547-8B03-B1E50FABF18C
Domain[ROOT_All]                 INFO >   Deaccess DbDomain     UPDATE    [ROOT_All] 
AthDictLoaderSvc                 INFO in finalize...
ToolSvc                          INFO Removing all tools created by ToolSvc
*****Chrono*****                 INFO ****************************************************************************************************
*****Chrono*****                 INFO  The Final CPU consumption ( Chrono ) Table (ordered)
*****Chrono*****                 INFO ****************************************************************************************************
commitOutput                     INFO Time User   : Tot=    0 [us]                                             #=  1
fRep_ALL                         INFO Time User   : Tot=   10 [ms] Ave/Min/Max=  2.5(+- 4.33)/    0/   10 [ms] #=  4
cRepR_ALL                        INFO Time User   : Tot=   10 [ms] Ave/Min/Max=0.667(+- 2.49)/    0/   10 [ms] #= 15
cRep_ALL                         INFO Time User   : Tot=   30 [ms] Ave/Min/Max=  7.5(+- 8.29)/    0/   20 [ms] #=  4
ChronoStatSvc                    INFO Time User   : Tot= 0.98  [s]                                             #=  1
*****Chrono*****                 INFO ****************************************************************************************************
ChronoStatSvc.finalize()         INFO  Service finalized successfully 
ApplicationMgr                   INFO Application Manager Finalized successfully
ApplicationMgr                   INFO Application Manager Terminated successfully
Py:Athena            INFO leaving with code 0: "successful run"
